{
	"server" : {
		"port": 3000,
		"corsHeaders": ["Link"]
	},
	"dataBase" : {
		"dataBase" : "cms_parkimeter",
		"user" : "root",
		"password" : "",
		"host" : "127.0.0.1",
		"dialect" : "mysql"
	},
	"filePaths" : {
		"logos" : "/logos",
		"covers": "/covers",
		"media": "/media"
	},
	"languages" : ["es", "en", "fr"]
}
